<?xml version="1.0" encoding="UTF-8"?>
<!DOCTYPE svg PUBLIC "-//W3C//DTD SVG 1.1//EN" "http://www.w3.org/Graphics/SVG/1.1/DTD/svg11.dtd">
<svg xmlns="http://www.w3.org/2000/svg" version="1.1" width="729px" height="729px" style="shape-rendering:geometricPrecision; text-rendering:geometricPrecision; image-rendering:optimizeQuality; fill-rule:evenodd; clip-rule:evenodd" xmlns:xlink="http://www.w3.org/1999/xlink">
<g><path style="opacity:1" fill="#4e9bb0" d="M 513.5,175.5 C 493.811,182.136 474.144,182.136 454.5,175.5C 424.251,162.066 406.584,138.9 401.5,106C 387.167,105.333 372.833,105.333 358.5,106C 353.412,138.902 335.746,162.069 305.5,175.5C 285.816,182.098 266.149,182.098 246.5,175.5C 208.449,157.76 191.283,127.76 195,85.5C 203.377,47.1237 226.877,24.2904 265.5,17C 307.007,14.2139 336.174,31.7139 353,69.5C 355.98,77.2307 357.48,85.2307 357.5,93.5C 372.167,93.5 386.833,93.5 401.5,93.5C 406.513,53.9871 428.18,28.8205 466.5,18C 515.673,12.4106 548.34,32.9106 564.5,79.5C 587.92,66.7062 611.42,54.0395 635,41.5C 637.543,44.7486 639.709,48.2486 641.5,52C 616.413,65.6272 591.246,79.1272 566,92.5C 566.044,131.558 548.544,159.225 513.5,175.5 Z M 270.5,28.5 C 308.066,28.2548 332.566,45.9215 344,81.5C 350.273,114.795 339.106,140.629 310.5,159C 272.406,175.769 240.906,167.602 216,134.5C 199.282,101.102 204.115,71.2691 230.5,45C 242.254,35.476 255.587,29.976 270.5,28.5 Z M 485.5,28.5 C 462.506,52.3282 439.672,76.3282 417,100.5C 416.019,106.757 416.686,112.757 419,118.5C 446.704,89.6308 474.204,60.6308 501.5,31.5C 512.085,33.291 521.085,37.9577 528.5,45.5C 527.504,45.5858 526.671,45.2524 526,44.5C 499.667,72.5 473.333,100.5 447,128.5C 441.909,134.098 436.409,139.098 430.5,143.5C 408.451,114.282 407.951,84.6157 429,54.5C 443.859,37.3222 462.692,28.6556 485.5,28.5 Z M 528.5,45.5 C 545.088,59.0196 553.421,76.6862 553.5,98.5C 551.71,128.789 537.043,150.289 509.5,163C 504.671,164.958 499.671,166.124 494.5,166.5C 512.763,146.068 531.596,126.068 551,106.5C 551.804,100.431 551.471,94.4308 550,88.5C 524.967,115.032 499.8,141.365 474.5,167.5C 469.838,166.501 465.171,165.501 460.5,164.5C 488.796,134.369 517.296,104.369 546,74.5C 545.235,69.9452 543.568,65.6118 541,61.5C 537,56.0046 532.834,50.6713 528.5,45.5 Z M 454.5,175.5 C 404.833,175.5 355.167,175.5 305.5,175.5C 335.746,162.069 353.412,138.902 358.5,106C 372.833,105.333 387.167,105.333 401.5,106C 406.584,138.9 424.251,162.066 454.5,175.5 Z"/></g>
<g><path style="opacity:1" fill="#fefefe" d="M 485.5,28.5 C 491.137,28.5853 496.471,29.5853 501.5,31.5C 474.204,60.6308 446.704,89.6308 419,118.5C 416.686,112.757 416.019,106.757 417,100.5C 439.672,76.3282 462.506,52.3282 485.5,28.5 Z"/></g>
<g><path style="opacity:1" fill="#fefefe" d="M 528.5,45.5 C 532.834,50.6713 537,56.0046 541,61.5C 543.568,65.6118 545.235,69.9452 546,74.5C 517.296,104.369 488.796,134.369 460.5,164.5C 448.747,159.961 438.747,152.961 430.5,143.5C 436.409,139.098 441.909,134.098 447,128.5C 473.333,100.5 499.667,72.5 526,44.5C 526.671,45.2524 527.504,45.5858 528.5,45.5 Z"/></g>
<g><path style="opacity:1" fill="#fefefe" d="M 494.5,166.5 C 493.833,166.5 493.5,166.833 493.5,167.5C 487.024,168.726 480.691,168.726 474.5,167.5C 499.8,141.365 524.967,115.032 550,88.5C 551.471,94.4308 551.804,100.431 551,106.5C 531.596,126.068 512.763,146.068 494.5,166.5 Z"/></g>
<g><path style="opacity:1" fill="#ee741c" d="M 246.5,175.5 C 266.149,182.098 285.816,182.098 305.5,175.5C 355.167,175.5 404.833,175.5 454.5,175.5C 474.144,182.136 493.811,182.136 513.5,175.5C 566.834,175.333 620.168,175.5 673.5,176C 693.365,181.227 702.198,194.061 700,214.5C 696.944,227.89 688.777,236.39 675.5,240C 599.167,240.5 522.834,240.667 446.5,240.5C 352.851,239.512 259.185,239.179 165.5,239.5C 147.454,228.875 141.954,213.541 149,193.5C 154.03,183.902 161.863,178.069 172.5,176C 197.164,175.5 221.831,175.333 246.5,175.5 Z"/></g>
<g><path style="opacity:1" fill="#d7c45f" d="M 165.5,239.5 C 259.185,239.179 352.851,239.512 446.5,240.5C 464.293,247.409 471.127,260.409 467,279.5C 465.735,288.865 460.902,295.698 452.5,300C 447.126,301.84 441.793,303.34 436.5,304.5C 306.833,304.5 177.167,304.5 47.5,304.5C 47.5,302.833 47.5,301.167 47.5,299.5C 50.1667,299.5 52.8333,299.5 55.5,299.5C 131.833,299.5 208.167,299.5 284.5,299.5C 284.833,299.5 285.167,299.5 285.5,299.5C 335.168,299.667 384.834,299.5 434.5,299C 457.138,296.6 466.305,284.1 462,261.5C 459.762,254.93 455.262,250.763 448.5,249C 444.886,248.064 441.22,247.564 437.5,247.5C 386.669,246.501 335.669,246.168 284.5,246.5C 208.167,246.5 131.833,246.5 55.5,246.5C 52.8333,246.5 50.1667,246.5 47.5,246.5C 47.5,244.167 47.5,241.833 47.5,239.5C 86.8333,239.5 126.167,239.5 165.5,239.5 Z"/></g>
<g><path style="opacity:1" fill="#397a3f" d="M 284.5,246.5 C 335.669,246.168 386.669,246.501 437.5,247.5C 386.833,247.5 336.167,247.5 285.5,247.5C 285.5,264.833 285.5,282.167 285.5,299.5C 285.167,299.5 284.833,299.5 284.5,299.5C 284.5,281.833 284.5,264.167 284.5,246.5 Z"/></g>
<g><path style="opacity:1" fill="#176836" d="M 437.5,247.5 C 441.22,247.564 444.886,248.064 448.5,249C 455.262,250.763 459.762,254.93 462,261.5C 466.305,284.1 457.138,296.6 434.5,299C 384.834,299.5 335.168,299.667 285.5,299.5C 285.5,282.167 285.5,264.833 285.5,247.5C 336.167,247.5 386.833,247.5 437.5,247.5 Z"/></g>
<g><path style="opacity:1" fill="#47a560" d="M 55.5,246.5 C 131.833,246.5 208.167,246.5 284.5,246.5C 284.5,264.167 284.5,281.833 284.5,299.5C 208.167,299.5 131.833,299.5 55.5,299.5C 62.166,281.839 62.166,264.172 55.5,246.5 Z"/></g>
<g><path style="opacity:1" fill="#ce5260" d="M 47.5,304.5 C 177.167,304.5 306.833,304.5 436.5,304.5C 491.168,304.333 545.834,304.5 600.5,305C 636.022,310.572 651.189,331.072 646,366.5C 638.455,387.882 623.621,400.882 601.5,405.5C 593.5,405.5 585.5,405.5 577.5,405.5C 572.167,405.5 566.833,405.5 561.5,405.5C 560.833,405.5 560.167,405.5 559.5,405.5C 555.5,405.5 551.5,405.5 547.5,405.5C 540.5,405.5 533.5,405.5 526.5,405.5C 526.167,405.5 525.833,405.5 525.5,405.5C 525.167,405.5 524.833,405.5 524.5,405.5C 375.5,405.5 226.5,405.5 77.5,405.5C 59.1667,405.5 40.8333,405.5 22.5,405.5C 22.5,402.833 22.5,400.167 22.5,397.5C 26.8333,397.5 31.1667,397.5 35.5,397.5C 170.833,397.5 306.167,397.5 441.5,397.5C 492.998,398.665 544.665,398.832 596.5,398C 625.088,391.056 637.588,372.889 634,343.5C 631.44,338.364 627.94,334.031 623.5,330.5C 616.508,323.329 608.174,318.162 598.5,315C 546.168,314.5 493.834,314.333 441.5,314.5C 306.833,314.5 172.167,314.5 37.5,314.5C 32.5,314.5 27.5,314.5 22.5,314.5C 22.5,311.167 22.5,307.833 22.5,304.5C 30.8333,304.5 39.1667,304.5 47.5,304.5 Z"/></g>
<g><path style="opacity:1" fill="#e62551" d="M 441.5,314.5 C 493.834,314.333 546.168,314.5 598.5,315C 608.174,318.162 616.508,323.329 623.5,330.5C 625.954,334.15 627.787,338.15 629,342.5C 633.478,368.06 623.645,385.227 599.5,394C 594.011,394.64 588.678,395.64 583.5,397C 536.168,397.5 488.835,397.667 441.5,397.5C 441.5,369.833 441.5,342.167 441.5,314.5 Z"/></g>
<g><path style="opacity:1" fill="#ac1d3a" d="M 37.5,314.5 C 172.167,314.5 306.833,314.5 441.5,314.5C 441.5,342.167 441.5,369.833 441.5,397.5C 306.167,397.5 170.833,397.5 35.5,397.5C 45.6961,376.514 48.5294,354.514 44,331.5C 42.7116,325.464 40.5449,319.797 37.5,314.5 Z"/></g>
<g><path style="opacity:1" fill="#e1395d" d="M 623.5,330.5 C 627.94,334.031 631.44,338.364 634,343.5C 637.588,372.889 625.088,391.056 596.5,398C 544.665,398.832 492.998,398.665 441.5,397.5C 488.835,397.667 536.168,397.5 583.5,397C 588.678,395.64 594.011,394.64 599.5,394C 623.645,385.227 633.478,368.06 629,342.5C 627.787,338.15 625.954,334.15 623.5,330.5 Z"/></g>
<g><path style="opacity:1" fill="#d0d8be" d="M 561.5,405.5 C 566.833,405.5 572.167,405.5 577.5,405.5C 577.5,436.5 577.5,467.5 577.5,498.5C 576.502,468.005 576.169,437.338 576.5,406.5C 571.305,406.821 566.305,406.487 561.5,405.5 Z"/></g>
<g><path style="opacity:1" fill="#0d6993" d="M 577.5,405.5 C 585.5,405.5 593.5,405.5 601.5,405.5C 603.5,405.5 605.5,405.5 607.5,405.5C 607.5,436.5 607.5,467.5 607.5,498.5C 597.5,498.5 587.5,498.5 577.5,498.5C 577.5,467.5 577.5,436.5 577.5,405.5 Z"/></g>
<g><path style="opacity:1" fill="#0d6993" d="M 77.5,405.5 C 226.5,405.5 375.5,405.5 524.5,405.5C 524.5,405.833 524.5,406.167 524.5,406.5C 523.502,436.662 523.169,466.995 523.5,497.5C 407.665,497.167 291.999,497.5 176.5,498.5C 143.5,498.5 110.5,498.5 77.5,498.5C 77.5,467.5 77.5,436.5 77.5,405.5 Z"/></g>
<g><path style="opacity:1" fill="#e8e6c2" d="M 525.5,405.5 C 525.833,405.5 526.167,405.5 526.5,405.5C 532.979,406.491 539.646,406.824 546.5,406.5C 546.169,437.338 546.502,468.005 547.5,498.5C 551.5,498.5 555.5,498.5 559.5,498.5C 559.5,467.5 559.5,436.5 559.5,405.5C 560.167,405.5 560.833,405.5 561.5,405.5C 566.305,406.487 571.305,406.821 576.5,406.5C 576.169,437.338 576.502,468.005 577.5,498.5C 577.5,498.833 577.5,499.167 577.5,499.5C 560.167,499.5 542.833,499.5 525.5,499.5C 525.5,468.167 525.5,436.833 525.5,405.5 Z"/></g>
<g><path style="opacity:1" fill="#0c6893" d="M 547.5,405.5 C 551.5,405.5 555.5,405.5 559.5,405.5C 559.5,436.5 559.5,467.5 559.5,498.5C 555.5,498.5 551.5,498.5 547.5,498.5C 547.5,467.5 547.5,436.5 547.5,405.5 Z"/></g>
<g><path style="opacity:1" fill="#d0d9be" d="M 526.5,405.5 C 533.5,405.5 540.5,405.5 547.5,405.5C 547.5,436.5 547.5,467.5 547.5,498.5C 546.502,468.005 546.169,437.338 546.5,406.5C 539.646,406.824 532.979,406.491 526.5,405.5 Z"/></g>
<g><path style="opacity:1" fill="#036493" d="M 524.5,406.5 C 524.5,437.167 524.5,467.833 524.5,498.5C 408.833,498.5 293.167,498.5 177.5,498.5C 177.167,498.5 176.833,498.5 176.5,498.5C 291.999,497.5 407.665,497.167 523.5,497.5C 523.169,466.995 523.502,436.662 524.5,406.5 Z"/></g>
<g><path style="opacity:1" fill="#a3af8d" d="M 524.5,405.5 C 524.833,405.5 525.167,405.5 525.5,405.5C 525.5,436.833 525.5,468.167 525.5,499.5C 466.5,499.5 407.5,499.5 348.5,499.5C 340.167,499.5 331.833,499.5 323.5,499.5C 274.833,499.5 226.167,499.5 177.5,499.5C 177.5,499.167 177.5,498.833 177.5,498.5C 293.167,498.5 408.833,498.5 524.5,498.5C 524.5,467.833 524.5,437.167 524.5,406.5C 524.5,406.167 524.5,405.833 524.5,405.5 Z"/></g>
<g><path style="opacity:1" fill="#f8d683" d="M 348.5,499.5 C 407.5,499.5 466.5,499.5 525.5,499.5C 542.833,499.5 560.167,499.5 577.5,499.5C 577.5,500.833 577.5,502.167 577.5,503.5C 573.833,503.5 570.167,503.5 566.5,503.5C 517.167,503.5 467.833,503.5 418.5,503.5C 415.482,503.335 412.482,503.502 409.5,504C 391.42,521.906 388.586,542.073 401,564.5C 404.105,570.608 408.771,574.941 415,577.5C 416.07,577.472 416.903,577.139 417.5,576.5C 466.833,576.5 516.167,576.5 565.5,576.5C 569.371,576.185 573.038,576.518 576.5,577.5C 561.833,577.833 561.833,578.167 576.5,578.5C 576.5,580.833 576.5,583.167 576.5,585.5C 500.665,585.167 424.998,585.501 349.5,586.5C 349.167,586.5 348.833,586.5 348.5,586.5C 335.829,565.245 332.996,542.578 340,518.5C 342.33,511.848 345.164,505.514 348.5,499.5 Z"/></g>
<g><path style="opacity:1" fill="#f8d683" d="M 177.5,499.5 C 226.167,499.5 274.833,499.5 323.5,499.5C 306.204,528.618 306.204,557.618 323.5,586.5C 275.167,586.5 226.833,586.5 178.5,586.5C 152.801,581.461 139.801,565.794 139.5,539.5C 140.801,515.529 153.468,502.196 177.5,499.5 Z"/></g>
<g><path style="opacity:1" fill="#e8b945" d="M 323.5,499.5 C 331.833,499.5 340.167,499.5 348.5,499.5C 345.164,505.514 342.33,511.848 340,518.5C 332.996,542.578 335.829,565.245 348.5,586.5C 340.167,586.5 331.833,586.5 323.5,586.5C 306.204,557.618 306.204,528.618 323.5,499.5 Z"/></g>
<g><path style="opacity:1" fill="#a8a57f" d="M 418.5,503.5 C 398.889,519.473 393.722,539.473 403,563.5C 405.49,570.488 410.323,574.821 417.5,576.5C 416.903,577.139 416.07,577.472 415,577.5C 408.771,574.941 404.105,570.608 401,564.5C 388.586,542.073 391.42,521.906 409.5,504C 412.482,503.502 415.482,503.335 418.5,503.5 Z"/></g>
<g><path style="opacity:1" fill="#fafaf5" d="M 418.5,503.5 C 467.833,503.5 517.167,503.5 566.5,503.5C 554.848,527.691 554.515,552.025 565.5,576.5C 516.167,576.5 466.833,576.5 417.5,576.5C 410.323,574.821 405.49,570.488 403,563.5C 393.722,539.473 398.889,519.473 418.5,503.5 Z"/></g>
<g><path style="opacity:1" fill="#fae188" d="M 576.5,577.5 C 577.477,580.287 577.81,583.287 577.5,586.5C 501.5,586.5 425.5,586.5 349.5,586.5C 424.998,585.501 500.665,585.167 576.5,585.5C 576.5,583.167 576.5,580.833 576.5,578.5C 561.833,578.167 561.833,577.833 576.5,577.5 Z"/></g>
<g><path style="opacity:1" fill="#e21843" d="M 178.5,586.5 C 226.833,586.5 275.167,586.5 323.5,586.5C 331.833,586.5 340.167,586.5 348.5,586.5C 348.833,586.5 349.167,586.5 349.5,586.5C 425.5,586.5 501.5,586.5 577.5,586.5C 590.994,587.331 604.661,587.831 618.5,588C 665.613,598.08 684.113,626.58 674,673.5C 662.05,697.745 642.55,711.579 615.5,715C 424.5,715.5 233.5,715.667 42.5,715.5C 42.5,711.5 42.5,707.5 42.5,703.5C 45.9387,703.747 49.272,703.414 52.5,702.5C 238.167,703.833 423.833,703.833 609.5,702.5C 628.525,700.908 643.358,692.241 654,676.5C 656.062,672.312 657.729,667.979 659,663.5C 663.334,628.327 648.167,607.16 613.5,600C 608.845,599.501 604.179,599.334 599.5,599.5C 530.5,599.5 461.5,599.5 392.5,599.5C 277.833,599.5 163.167,599.5 48.5,599.5C 46.5,599.5 44.5,599.5 42.5,599.5C 42.5,595.5 42.5,591.5 42.5,587.5C 88.0031,587.832 133.336,587.499 178.5,586.5 Z"/></g>
<g><path style="opacity:1" fill="#e75177" d="M 48.5,599.5 C 163.167,599.5 277.833,599.5 392.5,599.5C 392.5,599.833 392.5,600.167 392.5,600.5C 277.999,600.167 163.665,600.5 49.5,601.5C 48.6618,601.158 48.3284,600.492 48.5,599.5 Z"/></g>
<g><path style="opacity:1" fill="#426180" d="M 599.5,599.5 C 604.179,599.334 608.845,599.501 613.5,600C 648.167,607.16 663.334,628.327 659,663.5C 657.729,667.979 656.062,672.312 654,676.5C 643.358,692.241 628.525,700.908 609.5,702.5C 641.424,692.708 654.591,671.041 649,637.5C 644.099,623.266 634.932,612.766 621.5,606C 614.19,603.281 606.857,601.114 599.5,599.5 Z"/></g>
<g><path style="opacity:1" fill="#ea6285" d="M 392.5,600.5 C 392.5,634.5 392.5,668.5 392.5,702.5C 464.833,702.5 537.167,702.5 609.5,702.5C 423.833,703.833 238.167,703.833 52.5,702.5C 63.4087,673.129 64.2421,643.462 55,613.5C 53.4263,609.354 51.593,605.354 49.5,601.5C 163.665,600.5 277.999,600.167 392.5,600.5 Z"/></g>
<g><path style="opacity:1" fill="#fafaf5" d="M 392.5,599.5 C 461.5,599.5 530.5,599.5 599.5,599.5C 606.857,601.114 614.19,603.281 621.5,606C 634.932,612.766 644.099,623.266 649,637.5C 654.591,671.041 641.424,692.708 609.5,702.5C 537.167,702.5 464.833,702.5 392.5,702.5C 392.5,668.5 392.5,634.5 392.5,600.5C 392.5,600.167 392.5,599.833 392.5,599.5 Z"/></g>
</svg>
